%YAML 1.1
%TAG !u! tag:unity3d.com,2011:
--- !u!1045 &1
EditorBuildSettings:
  m_ObjectHideFlags: 0
  serializedVersion: 2
  m_Scenes:
  - enabled: 0
    path: 
    guid: 00000000000000000000000000000000
  - enabled: 1
    path: Assets/Scenes/Menu.unity
    guid: e2d00847712658a4cad07d7453ee0e81
  - enabled: 1
    path: Assets/Scenes/TestLV1.unity
    guid: b7d792b9ca6abcb4db945119b1b18b5b
  - enabled: 0
    path: Assets/Scenes/TestLV2.unity
    guid: 13858becef6d1cc4999d4d89f55f0a1b
  - enabled: 0
    path: Assets/Scenes/TestLV3.unity
    guid: d854f8e764b755e49bfc240f6cb171a2
  m_configObjects: {}
