%YAML 1.1
%TAG !u! tag:unity3d.com,2011:
--- !u!78 &1
TagManager:
  serializedVersion: 2
  tags:
  - Ground
  - Ennemis
  - caisse
  - cacher
  - "PorteLev\xE9"
  - BoutonInterrupteur
  - PorteBaisser
  - BoutonLeft
  - BoutonRight
  - BoutonEchelle
  - RaycastMobile
  - teleporteur
  - boutonteleporteur
  - bouton
  - "lev\xE9"
  - baisser
  - boutonMonter
  - triggerPoulie
  - changeCouleur
  - barreauxUp
  - barreauxDown
  - dialogue
  - spawn
  - particule
  - cameraRotation
  - spawner
  - target
  - destroy
  - teleporteur2
  - boutonMonterAscenseur
  - boutonDescendreAscenseur
  - "\xE9chelle"
  - trous
  layers:
  - Default
  - TransparentFX
  - Ignore Raycast
  - 
  - Water
  - UI
  - 
  - 
  - Player
  - Ennemi
  - clickMask
  - BoutonLayer
  - groundLayer
  - caisseLayer
  - Debug
  - 
  - 
  - 
  - 
  - 
  - 
  - 
  - 
  - 
  - 
  - 
  - Porte
  - 
  - 
  - 
  - 
  - Target
  m_SortingLayers:
  - name: Default
    uniqueID: 0
    locked: 0
  - name: Target
    uniqueID: 1284965391
    locked: 0
