%YAML 1.1
%TAG !u! tag:unity3d.com,2011:
--- !u!1 &4044895857490128799
GameObject:
  m_ObjectHideFlags: 0
  m_CorrespondingSourceObject: {fileID: 0}
  m_PrefabInstance: {fileID: 0}
  m_PrefabAsset: {fileID: 0}
  serializedVersion: 6
  m_Component:
  - component: {fileID: 4044895857490128769}
  - component: {fileID: 4044895857490128768}
  m_Layer: 0
  m_Name: GameManager
  m_TagString: Untagged
  m_Icon: {fileID: 0}
  m_NavMeshLayer: 0
  m_StaticEditorFlags: 0
  m_IsActive: 1
--- !u!4 &4044895857490128769
Transform:
  m_ObjectHideFlags: 0
  m_CorrespondingSourceObject: {fileID: 0}
  m_PrefabInstance: {fileID: 0}
  m_PrefabAsset: {fileID: 0}
  m_GameObject: {fileID: 4044895857490128799}
  m_LocalRotation: {x: 0, y: 0, z: 0, w: 1}
  m_LocalPosition: {x: 0, y: 0, z: 0}
  m_LocalScale: {x: 1, y: 1, z: 1}
  m_Children: []
  m_Father: {fileID: 0}
  m_RootOrder: 0
  m_LocalEulerAnglesHint: {x: 0, y: 0, z: 0}
--- !u!114 &4044895857490128768
MonoBehaviour:
  m_ObjectHideFlags: 0
  m_CorrespondingSourceObject: {fileID: 0}
  m_PrefabInstance: {fileID: 0}
  m_PrefabAsset: {fileID: 0}
  m_GameObject: {fileID: 4044895857490128799}
  m_Enabled: 1
  m_EditorHideFlags: 0
  m_Script: {fileID: 11500000, guid: b7fc8d2f4160c44498c9b9bc687b39fc, type: 3}
  m_Name: 
  m_EditorClassIdentifier: 
  player: {fileID: 0}
  bloque: 0
  peutBouger: 0
  tourneVersLaGauche: 0
  isJumping: 0
  clickMask:
    serializedVersion: 2
    m_Bits: 1024
  groundLayer:
    serializedVersion: 2
    m_Bits: 4096
  caisseLayer:
    serializedVersion: 2
    m_Bits: 8192
  boutonLayer:
    serializedVersion: 2
    m_Bits: 2048
  pointMouse: {fileID: 6425507135907080259, guid: 1d243ad36fef3f144b0c743161d75201,
    type: 3}
  speed: 3
  distanceGrounded: 1
  stepHeightMax: 0.5
  clickCaisse: 0
  boutonCaisse: {fileID: 698602757015985174, guid: 6a0082ff10626cc41acf80c299c51191,
    type: 3}
  camera: {fileID: 0}
  offsetHauteur: {x: 0, y: 6, z: -12}
